[gd_scene load_steps=4 format=2]

[ext_resource path="res://scenes/Player.tscn" type="PackedScene" id=1]
[ext_resource path="res://scenes/UI.tscn" type="PackedScene" id=3]
[ext_resource path="res://scenes/World.gd" type="Script" id=4]

[node name="World" type="Node2D"]
script = ExtResource( 4 )

[node name="Player" parent="." instance=ExtResource( 1 )]
position = Vector2( 434.164, 440.528 )

[node name="Pickups" type="Node2D" parent="."]

[node name="Rocks" type="Node2D" parent="."]

[node name="UI" parent="." instance=ExtResource( 3 )]
visible = false
