{
	"Iron Ore": {
		"category": "Resource",
		"stack_size": 99,
		"description": "Some basic iron ore"
	},
	"Copper Ore": {
		"category": "Resource",
		"stack_size": 99,
		"description": "Some basic copper ore"
	}
}
